^C:\USERS\SLEK\SOURCE\REPOS\SKILLBOX\18\MODULE8\MODULE8.CPP
C:\USERS\SLEK\SOURCE\REPOS\SKILLBOX\18\MODULE8\DEBUG\VC142.PDB
C:\USERS\SLEK\SOURCE\REPOS\SKILLBOX\18\MODULE8\DEBUG\VC142.IDB
C:\USERS\SLEK\SOURCE\REPOS\SKILLBOX\18\MODULE8\DEBUG\MODULE8.OBJ
